Exploring the BRFSS data
…
Research quesion 4:

4- Do sleeping and general sense of well being correlate?

q4<-na.omit(brfss2013%>%select(sex, genhlth, sleptim1))
q4<-q4%>%mutate(healthy=(q4$genhlth=='Excellent')|(q4$genhlth=='Very good'))
q4%>%group_by(sleptim1, sex)%>%summarise(mean_health=mean(healthy), count=n())

## # A tibble: 47 x 4
## # Groups: sleptim1 [?]
##    sleptim1 sex    mean_health count
##       <int> <fctr>       <dbl> <int>
##  1        1 Male         0.198    96
##  2        1 Female       0.227   132
##  3        2 Male         0.186   458
##  4        2 Female       0.144   605
##  5        3 Male         0.209  1419
##  6        3 Female       0.187  2047
##  7        4 Male         0.280  5717
##  8        4 Female       0.224  8477
##  9        5 Male         0.389 13170
## 10        5 Female       0.331 20120
## # ... with 37 more rows
…
